{
    "H": {
        "1s": 0.4196
    },
    "He": {
        "1s": 0.7428
    },
    "Li": {
        "2s": 0.1742,
        "2p": 0.1309
    },
    "Be": {
        "2s": 0.2709,
        "2p": 0.2247
    },
    "B": {
        "2s": 0.334,
        "2p": 0.2962
    },
    "C": {
        "2s": 0.3992,
        "2p": 0.3646
    },
    "N": {
        "2s": 0.4644,
        "2p": 0.4308
    },
    "O": {
        "2s": 0.5288,
        "2p": 0.4953
    },
    "F": {
        "2s": 0.5933,
        "2p": 0.5585
    },
    "Ne": {
        "2s": 0.656,
        "2p": 0.6206
    },
    "Na": {
        "3s": 0.1655,
        "3p": 0.0889,
        "3d": 0.0163
    },
    "Mg": {
        "3s": 0.2251,
        "3p": 0.1511,
        "3d": 0.13
    },
    "Al": {
        "3s": 0.2616,
        "3p": 0.2032,
        "3d": 0.1865
    },
    "Si": {
        "3s": 0.3002,
        "3p": 0.2478,
        "3d": 0.1966
    },
    "P": {
        "3s": 0.3379,
        "3p": 0.2892,
        "3d": 0.2163
    },
    "S": {
        "3s": 0.3754,
        "3p": 0.3286,
        "3d": 0.2129
    },
    "Cl": {
        "3s": 0.412,
        "3p": 0.3669,
        "3d": 0.2142
    },
    "Ar": {
        "3s": 0.4492,
        "3p": 0.4042,
        "3d": 0.2079
    },
    "K": {
        "4s": 0.1363,
        "4p": 0.0817,
        "3d": 0.0832
    },
    "Ca": {
        "4s": 0.1774,
        "4p": 0.128,
        "3d": 0.2908
    },
    "Sc": {
        "4s": 0.1898,
        "4p": 0.1385,
        "3d": 0.3226
    },
    "Ti": {
        "4s": 0.2014,
        "4p": 0.1446,
        "3d": 0.351
    },
    "V": {
        "4s": 0.2121,
        "4p": 0.149,
        "3d": 0.3763
    },
    "Cr": {
        "4s": 0.2003,
        "4p": 0.1236,
        "3d": 0.3119
    },
    "Mn": {
        "4s": 0.231,
        "4p": 0.1553,
        "3d": 0.4218
    },
    "Fe": {
        "4s": 0.2393,
        "4p": 0.1571,
        "3d": 0.4427
    },
    "Co": {
        "4s": 0.2479,
        "4p": 0.1585,
        "3d": 0.4627
    },
    "Ni": {
        "4s": 0.2354,
        "4p": 0.1124,
        "3d": 0.4011
    },
    "Cu": {
        "4s": 0.2431,
        "4p": 0.1061,
        "3d": 0.4203
    },
    "Zn": {
        "4s": 0.2716,
        "4p": 0.1566,
        "3d": 0.5189
    },
    "Ga": {
        "4s": 0.2799,
        "4p": 0.205,
        "4d": 0.0515
    },
    "Ge": {
        "4s": 0.304,
        "4p": 0.2404,
        "4d": 0.1013
    },
    "As": {
        "4s": 0.3296,
        "4p": 0.2716,
        "4d": 0.1278
    },
    "Se": {
        "4s": 0.3555,
        "4p": 0.3005,
        "4d": 0.1658
    },
    "Br": {
        "4s": 0.3799,
        "4p": 0.3277,
        "4d": 0.1890
    },
    "Kr": {
        "4s": 0.4046,
        "4p": 0.3541,
        "4d": 0.4502
    },
    "Rb": {
        "5s": 0.1305,
        "5p": 0.074,
        "4d": 0.0946
    },
    "Sr": {
        "5s": 0.1653,
        "5p": 0.1149,
        "4d": 0.2022
    },
    "Y": {
        "5s": 0.1771,
        "5p": 0.1274,
        "4d": 0.2392
    },
    "Zr": {
        "5s": 0.1897,
        "5p": 0.1356,
        "4d": 0.2689
    },
    "Nb": {
        "5s": 0.1852,
        "5p": 0.1223,
        "4d": 0.2585
    },
    "Mo": {
        "5s": 0.1955,
        "5p": 0.1232,
        "4d": 0.2844
    },
    "Tc": {
        "5s": 0.2176,
        "5p": 0.1486,
        "4d": 0.3386
    },
    "Ru": {
        "5s": 0.2123,
        "5p": 0.12,
        "4d": 0.3295
    },
    "Rh": {
        "5s": 0.2193,
        "5p": 0.1159,
        "4d": 0.3501
    },
    "Pd": {
        "5s": 0.1965,
        "5p": 0.1076,
        "4d": 0.3359
    },
    "Ag": {
        "5s": 0.2316,
        "5p": 0.1075,
        "4d": 0.3875
    },
    "Cd": {
        "5s": 0.2519,
        "5p": 0.1518,
        "4d": 0.4301
    },
    "In": {
        "5s": 0.2577,
        "5p": 0.19,
        "5d": 0.1565
    },
    "Sn": {
        "5s": 0.275,
        "5p": 0.2174,
        "5d": 0.1717
    },
    "Sb": {
        "5s": 0.2944,
        "5p": 0.2416,
        "5d": 0.1848
    },
    "Te": {
        "5s": 0.3132,
        "5p": 0.2636,
        "5d": 0.1959
    },
    "I": {
        "5s": 0.3316,
        "5p": 0.2841,
        "5d": 0.2065
    },
    "Xe": {
        "5s": 0.3489,
        "5p": 0.3028,
        "5d": 0.2119
    },
    "Cs": {
        "6s": 0.1206,
        "6p": 0.0691,
        "5d": 0.1295
    },
    "Ba": {
        "6s": 0.1494,
        "6p": 0.1059,
        "5d": 0.1972
    },
    "La": {
        "6s": 0.1604,
        "6p": 0.1158,
        "5d": 0.2206
    },
    "Ce": {
        "6s": 0.163,
        "6p": 0.1171,
        "5d": 0.2237,
        "4f": 0.4648
    },
    "Pr": {
        "6s": 0.1583,
        "6p": 0.1105,
        "5d": 0.2067,
        "4f": 0.3834
    },
    "Nd": {
        "6s": 0.1608,
        "6p": 0.1115,
        "5d": 0.2082,
        "4f": 0.4015
    },
    "Pm": {
        "6s": 0.1629,
        "6p": 0.1119,
        "5d": 0.209,
        "4f": 0.4153
    },
    "Sm": {
        "6s": 0.1653,
        "6p": 0.1125,
        "5d": 0.2088,
        "4f": 0.4266
    },
    "Eu": {
        "6s": 0.1675,
        "6p": 0.1123,
        "5d": 0.2089,
        "4f": 0.4362
    },
    "Gd": {
        "6s": 0.1765,
        "6p": 0.1222,
        "5d": 0.2303,
        "4f": 0.497
    },
    "Tb": {
        "6s": 0.1722,
        "6p": 0.113,
        "5d": 0.2053,
        "4f": 0.4516
    },
    "Dy": {
        "6s": 0.1741,
        "6p": 0.1136,
        "5d": 0.2031,
        "4f": 0.4579
    },
    "Ho": {
        "6s": 0.1756,
        "6p": 0.1141,
        "5d": 0.2002,
        "4f": 0.4631
    },
    "Er": {
        "6s": 0.1774,
        "6p": 0.1139,
        "5d": 0.1983,
        "4f": 0.4678
    },
    "Tm": {
        "6s": 0.18,
        "6p": 0.1145,
        "5d": 0.1947,
        "4f": 0.4717
    },
    "Yb": {
        "6s": 0.1818,
        "6p": 0.1177,
        "5d": 0.1897,
        "4f": 0.4747
    },
    "Lu": {
        "6s": 0.1875,
        "6p": 0.1277,
        "5d": 0.2204,
        "4f": 0.5125
    },
    "Hf": {
        "6s": 0.1997,
        "6p": 0.1368,
        "5d": 0.2488
    },
    "Ta": {
        "6s": 0.212,
        "6p": 0.1417,
        "5d": 0.2724
    },
    "W": {
        "6s": 0.2232,
        "6p": 0.1457,
        "5d": 0.2935
    },
    "Re": {
        "6s": 0.233,
        "6p": 0.1481,
        "5d": 0.3126
    },
    "Os": {
        "6s": 0.242,
        "6p": 0.149,
        "5d": 0.3302
    },
    "Ir": {
        "6s": 0.2504,
        "6p": 0.1486,
        "5d": 0.3469
    },
    "Pt": {
        "6s": 0.248,
        "6p": 0.1177,
        "5d": 0.3433
    },
    "Au": {
        "6s": 0.2558,
        "6p": 0.1101,
        "5d": 0.3597
    },
    "Hg": {
        "6s": 0.2727,
        "6p": 0.1433,
        "5d": 0.3922
    },
    "Tl": {
        "6s": 0.267,
        "6p": 0.1865,
        "6d": -0.0259
    },
    "Pb": {
        "6s": 0.2805,
        "6p": 0.2103,
        "6d": -0.0481
    },
    "Bi": {
        "6s": 0.2954,
        "6p": 0.2314,
        "6d": 0.1442
    },
    "Po": {
        "6s": 0.3107,
        "6p": 0.2503,
        "6d": 0.1581
    },
    "At": {
        "6s": 0.3264,
        "6p": 0.2677,
        "6d": 0.1677
    },
    "Rn": {
        "6s": 0.3413,
        "6p": 0.2846,
        "6d": 0.2119
    },
    "Fr": {
        "7s": 0.1261,
        "7p": 0.0601,
        "6d": 0.1138
    },
    "Ra": {
        "7s": 0.1514,
        "7p": 0.0949,
        "6d": 0.1677
    },
    "Ac": {
        "7s": 0.1624,
        "7p": 0.1078,
        "6d": 0.191
    },
    "Th": {
        "7s": 0.1736,
        "7p": 0.1161,
        "6d": 0.211,
        "5f": 0.3396
    },
    "Pa": {
        "7s": 0.1697,
        "7p": 0.1117,
        "6d": 0.2014,
        "5f": 0.3194
    },
    "U": {
        "7s": 0.1727,
        "7p": 0.1117,
        "6d": 0.2046,
        "5f": 0.3349
    },
    "Np": {
        "7s": 0.1759,
        "7p": 0.1124,
        "6d": 0.2069,
        "5f": 0.3481
    },
    "Pu": {
        "7s": 0.1731,
        "7p": 0.1017,
        "6d": 0.192,
        "5f": 0.3298
    },
    "Am": {
        "7s": 0.1754,
        "7p": 0.1011,
        "6d": 0.1915,
        "5f": 0.3476
    },
    "Cm": {
        "7s": 0.1822,
        "7p": 0.1141,
        "6d": 0.2093,
        "5f": 0.378
    },
    "Bk": {
        "7s": 0.1808,
        "7p": 0.0998,
        "6d": 0.1894,
        "5f": 0.3768
    },
    "Cf": {
        "7s": 0.1828,
        "7p": 0.0984,
        "6d": 0.1865,
        "5f": 0.3894
    },
    "Es": {
        "7s": 0.1856,
        "7p": 0.1059,
        "6d": 0.183,
        "5f": 0.4013
    },
    "Fm": {
        "7s": 0.187,
        "7p": 0.105,
        "6d": 0.1784,
        "5f": 0.412
    },
    "Md": {
        "7s": 0.1888,
        "7p": 0.105,
        "6d": 0.173,
        "5f": 0.4224
    },
    "No": {
        "7s": 0.1915,
        "7p": 0.1039,
        "6d": 0.166,
        "5f": 0.4325
    },
    "Lr": {
        "7s": 0.2008,
        "7p": 0.136,
        "6d": 0.2285,
        "5f": 0.4701
    },
    "Rf": {
        "7s": 0.2037,
        "7p": 0.1263,
        "6d": 0.2234
    },
    "Db": {
        "7s": 0.2177,
        "7p": 0.1328,
        "6d": 0.2458
    },
    "Sg": {
        "7s": 0.2308,
        "7p": 0.1367,
        "6d": 0.2652
    },
    "Bh": {
        "7s": 0.2424,
        "7p": 0.1379,
        "6d": 0.2826
    },
    "Hs": {
        "7s": 0.2532,
        "7p": 0.1377,
        "6d": 0.2987
    },
    "Mt": {
        "7s": 0.2643,
        "7p": 0.1351,
        "6d": 0.3136
    }
}
