{
  "H": {
    "1s": -0.2386
  },
  "He": {
    "1s": -0.57931
  },
  "Li": {
    "2s": -0.10562,
    "2p": -0.04005
  },
  "Be": {
    "2s": -0.20615,
    "2p": -0.07417
  },
  "B": {
    "2s": -0.34702,
    "2p": -0.13255
  },
  "C": {
    "2s": -0.50533,
    "2p": -0.19423
  },
  "N": {
    "2s": -0.68289,
    "2p": -0.26054
  },
  "O": {
    "2s": -0.88055,
    "2p": -0.33185
  },
  "F": {
    "2s": -1.09875,
    "2p": -0.40831
  },
  "Ne": {
    "2s": -1.33781,
    "2p": -0.48997
  },
  "Na": {
    "3s": -0.10084,
    "3p": -0.02731,
    "3d": 0.06724
  },
  "Mg": {
    "3s": -0.17292,
    "3p": -0.04887,
    "3d": 0.06663
  },
  "Al": {
    "3s": -0.2849,
    "3p": -0.09966,
    "3d": 0.0596
  },
  "Si": {
    "3s": -0.39735,
    "3p": -0.14998,
    "3d": 0.06329
  },
  "P": {
    "3s": -0.51334,
    "3p": -0.20236,
    "3d": 0.07141
  },
  "S": {
    "3s": -0.63413,
    "3p": -0.25755,
    "3d": 0.08098
  },
  "Cl": {
    "3s": -0.76037,
    "3p": -0.31585,
    "3d": 0.09053
  },
  "Ar": {
    "3s": -0.89246,
    "3p": -0.37739,
    "3d": 0.09928
  },
  "K": {
    "4s": -0.08522,
    "4p": -0.02957,
    "3d": 0.03069
  },
  "Ca": {
    "4s": -0.13841,
    "4p": -0.05154,
    "3d": -0.07158
  },
  "Sc": {
    "4s": -0.15372,
    "4p": -0.05392,
    "3d": -0.11886
  },
  "Ti": {
    "4s": -0.16414,
    "4p": -0.05388,
    "3d": -0.15655
  },
  "V": {
    "4s": -0.17279,
    "4p": -0.05306,
    "3d": -0.18983
  },
  "Cr": {
    "4s": -0.14725,
    "4p": -0.03633,
    "3d": -0.10709
  },
  "Mn": {
    "4s": -0.18767,
    "4p": -0.05037,
    "3d": -0.24885
  },
  "Fe": {
    "4s": -0.19446,
    "4p": -0.04871,
    "3d": -0.27582
  },
  "Co": {
    "4s": -0.201,
    "4p": -0.04693,
    "3d": -0.30151
  },
  "Ni": {
    "4s": -0.1651,
    "4p": -0.02768,
    "3d": -0.17076
  },
  "Cu": {
    "4s": -0.16942,
    "4p": -0.02564,
    "3d": -0.18524
  },
  "Zn": {
    "4s": -0.2197,
    "4p": -0.04103,
    "3d": -0.37266
  },
  "Ga": {
    "4s": -0.32881,
    "4p": -0.09482,
    "4d": 0.07029
  },
  "Ge": {
    "4s": -0.43103,
    "4p": -0.14321,
    "4d": 0.06805
  },
  "As": {
    "4s": -0.53252,
    "4p": -0.19099,
    "4d": 0.07055
  },
  "Se": {
    "4s": -0.63511,
    "4p": -0.2394,
    "4d": 0.07516
  },
  "Br": {
    "4s": -0.73968,
    "4p": -0.289,
    "4d": 0.0807
  },
  "Kr": {
    "4s": -0.84672,
    "4p": -0.34005,
    "4d": 0.08657
  },
  "Rb": {
    "5s": -0.082,
    "5p": -0.02753,
    "4d": 0.02391
  },
  "Sr": {
    "5s": -0.12957,
    "5p": -0.04723,
    "4d": -0.04713
  },
  "Y": {
    "5s": -0.15075,
    "5p": -0.05299,
    "4d": -0.09249
  },
  "Zr": {
    "5s": -0.16313,
    "5p": -0.05406,
    "4d": -0.13229
  },
  "Nb": {
    "5s": -0.14633,
    "5p": -0.04089,
    "4d": -0.11179
  },
  "Mo": {
    "5s": -0.15018,
    "5p": -0.03843,
    "4d": -0.13799
  },
  "Tc": {
    "5s": -0.18532,
    "5p": -0.05155,
    "4d": -0.24486
  },
  "Ru": {
    "5s": -0.15582,
    "5p": -0.03364,
    "4d": -0.19129
  },
  "Rh": {
    "5s": -0.15805,
    "5p": -0.03139,
    "4d": -0.21843
  },
  "Pd": {
    "5s": -0.12216,
    "5p": -0.01165,
    "4d": -0.14903
  },
  "Ag": {
    "5s": -0.16192,
    "5p": -0.02723,
    "4d": -0.27372
  },
  "Cd": {
    "5s": -0.20799,
    "5p": -0.04372,
    "4d": -0.43125
  },
  "In": {
    "5s": -0.3016,
    "5p": -0.09285,
    "5d": 0.0648
  },
  "Sn": {
    "5s": -0.38737,
    "5p": -0.13615,
    "5d": 0.05886
  },
  "Sb": {
    "5s": -0.47106,
    "5p": -0.17794,
    "5d": 0.05761
  },
  "Te": {
    "5s": -0.5546,
    "5p": -0.21946,
    "5d": 0.05875
  },
  "I": {
    "5s": -0.63889,
    "5p": -0.26128,
    "5d": 0.06121
  },
  "Xe": {
    "5s": -0.72448,
    "5p": -0.30374,
    "5d": 0.06448
  },
  "Cs": {
    "6s": -0.07666,
    "6p": -0.02722,
    "5d": 0.00162
  },
  "Ba": {
    "6s": -0.11867,
    "6p": -0.04586,
    "5d": -0.07414
  },
  "La": {
    "6s": -0.13521,
    "6p": -0.04993,
    "5d": -0.11353
  },
  "Ce": {
    "6s": -0.1376,
    "6p": -0.04983,
    "5d": -0.11239,
    "4f": -0.19764
  },
  "Pr": {
    "6s": -0.12724,
    "6p": -0.04602,
    "5d": -0.07442,
    "4f": -0.046
  },
  "Nd": {
    "6s": -0.1287,
    "6p": -0.04556,
    "5d": -0.07054,
    "4f": -0.06431
  },
  "Pm": {
    "6s": -0.13018,
    "6p": -0.04514,
    "5d": -0.06635,
    "4f": -0.07898
  },
  "Sm": {
    "6s": -0.13167,
    "6p": -0.04472,
    "5d": -0.06193,
    "4f": -0.09059
  },
  "Eu": {
    "6s": -0.13316,
    "6p": -0.04431,
    "5d": -0.05737,
    "4f": -0.09959
  },
  "Gd": {
    "6s": -0.15163,
    "6p": -0.04945,
    "5d": -0.09316,
    "4f": -0.31875
  },
  "Tb": {
    "6s": -0.13618,
    "6p": -0.04348,
    "5d": -0.04801,
    "4f": -0.11101
  },
  "Dy": {
    "6s": -0.13772,
    "6p": -0.04305,
    "5d": -0.0433,
    "4f": -0.1139
  },
  "Ho": {
    "6s": -0.13929,
    "6p": -0.04261,
    "5d": -0.03861,
    "4f": -0.11515
  },
  "Er": {
    "6s": -0.14088,
    "6p": -0.04217,
    "5d": -0.03397,
    "4f": -0.11493
  },
  "Tm": {
    "6s": -0.1425,
    "6p": -0.04171,
    "5d": -0.02942,
    "4f": -0.11336
  },
  "Yb": {
    "6s": -0.14417,
    "6p": -0.04126,
    "5d": -0.02498,
    "4f": -0.11058
  },
  "Lu": {
    "6s": -0.17124,
    "6p": -0.05022,
    "5d": -0.06462,
    "4f": -0.3519
  },
  "Hf": {
    "6s": -0.18778,
    "6p": -0.05234,
    "5d": -0.09918
  },
  "Ta": {
    "6s": -0.20009,
    "6p": -0.05237,
    "5d": -0.13238
  },
  "W": {
    "6s": -0.21006,
    "6p": -0.05148,
    "5d": -0.16515
  },
  "Re": {
    "6s": -0.21856,
    "6p": -0.05012,
    "5d": -0.19783
  },
  "Os": {
    "6s": -0.22607,
    "6p": -0.04851,
    "5d": -0.23058
  },
  "Ir": {
    "6s": -0.23288,
    "6p": -0.04674,
    "5d": -0.26351
  },
  "Pt": {
    "6s": -0.20845,
    "6p": -0.03286,
    "5d": -0.22715
  },
  "Au": {
    "6s": -0.21229,
    "6p": -0.03042,
    "5d": -0.25442
  },
  "Hg": {
    "6s": -0.25083,
    "6p": -0.04109,
    "5d": -0.36374
  },
  "Tl": {
    "6s": -0.34968,
    "6p": -0.0903,
    "6d": 0.06912
  },
  "Pb": {
    "6s": -0.4402,
    "6p": -0.13255,
    "6d": 0.06139
  },
  "Bi": {
    "6s": -0.52865,
    "6p": -0.17303,
    "6d": 0.05839
  },
  "Po": {
    "6s": -0.61703,
    "6p": -0.21292,
    "6d": 0.05787
  },
  "At": {
    "6s": -0.70631,
    "6p": -0.2528,
    "6d": 0.05876
  },
  "Rn": {
    "6s": -0.79707,
    "6p": -0.29303,
    "6d": 0.06051
  },
  "Fr": {
    "7s": -0.07977,
    "7p": -0.02296,
    "6d": -0.00832
  },
  "Ra": {
    "7s": -0.12053,
    "7p": -0.0384,
    "6d": -0.04827
  },
  "Ac": {
    "7s": -0.14498,
    "7p": -0.04546,
    "6d": -0.08288
  },
  "Th": {
    "7s": -0.16224,
    "7p": -0.04835,
    "6d": -0.11354,
    "5f": -0.13534
  },
  "Pa": {
    "7s": -0.15311,
    "7p": -0.04511,
    "6d": -0.08755,
    "5f": -0.08284
  },
  "U": {
    "7s": -0.15574,
    "7p": -0.04469,
    "6d": -0.08619,
    "5f": -0.11886
  },
  "Np": {
    "7s": -0.15831,
    "7p": -0.04437,
    "6d": -0.08401,
    "5f": -0.15255
  },
  "Pu": {
    "7s": -0.1421,
    "7p": -0.03775,
    "6d": -0.04994,
    "5f": -0.07012
  },
  "Am": {
    "7s": -0.14297,
    "7p": -0.03686,
    "6d": -0.04482,
    "5f": -0.09009
  },
  "Cm": {
    "7s": -0.16643,
    "7p": -0.04394,
    "6d": -0.07497,
    "5f": -0.24387
  },
  "Bk": {
    "7s": -0.14516,
    "7p": -0.03538,
    "6d": -0.03473,
    "5f": -0.12766
  },
  "Cf": {
    "7s": -0.14641,
    "7p": -0.03472,
    "6d": -0.02979,
    "5f": -0.14517
  },
  "Es": {
    "7s": -0.14774,
    "7p": -0.03407,
    "6d": -0.02495,
    "5f": -0.1618
  },
  "Fm": {
    "7s": -0.14915,
    "7p": -0.03344,
    "6d": -0.02024,
    "5f": -0.17757
  },
  "Md": {
    "7s": -0.15062,
    "7p": -0.03281,
    "6d": -0.01568,
    "5f": -0.19247
  },
  "No": {
    "7s": -0.15215,
    "7p": -0.03217,
    "6d": -0.01132,
    "5f": -0.20651
  },
  "Lr": {
    "7s": -0.239,
    "7p": -0.07386,
    "6d": -0.10794,
    "5f": -0.51175
  },
  "Rf": {
    "7s": -0.2153,
    "7p": -0.04941,
    "6d": -0.08082
  },
  "Db": {
    "7s": -0.23536,
    "7p": -0.05102,
    "6d": -0.10969
  },
  "Sg": {
    "7s": -0.25304,
    "7p": -0.0515,
    "6d": -0.13772
  },
  "Bh": {
    "7s": -0.26934,
    "7p": -0.05137,
    "6d": -0.16535
  },
  "Hs": {
    "7s": -0.2848,
    "7p": -0.05087,
    "6d": -0.1928
  },
  "Mt": {
    "7s": -0.29979,
    "7p": -0.05016,
    "6d": -0.22018
  }
}
